Dockerized mvMAPIT • mvMAPIT
…
## 2023-09-25 17:17:52.607698 DEBUG:mvmapit:Running in normal test mode.
## 2023-09-25 17:17:52.617772 DEBUG:mvmapit:Genotype matrix: 10 x 100
## 2023-09-25 17:17:52.626288 DEBUG:mvmapit:Phenotype matrix: 2 x 100
## 2023-09-25 17:17:52.627469 DEBUG:mvmapit:Number of zero variance variants: 0
## 2023-09-25 17:17:52.628533 DEBUG:mvmapit:Genotype matrix after removing zero variance variants: 10 x 100
## 2023-09-25 17:17:52.629277 DEBUG:mvmapit:Scale X matrix appropriately.
## 2023-09-25 17:17:52.630768 INFO:mvmapit:Running normal C++ routine.
## 2023-09-25 17:17:52.686921 DEBUG:mvmapit:Calculated mean time of execution. Return list.

## $pvalues
## # A tibble: 30 × 3
##    id        trait         p
##    <chr>     <chr>     <dbl>
##  1 snp_00001 p_01*p_01 0.435
##  2 snp_00001 p_02*p_01 0.476
##  3 snp_00001 p_02*p_02 0.909
##  4 snp_00002 p_01*p_01 0.510
##  5 snp_00002 p_02*p_01 0.606
##  6 snp_00002 p_02*p_02 0.326
##  7 snp_00003 p_01*p_01 0.452
##  8 snp_00003 p_02*p_01 0.536
##  9 snp_00003 p_02*p_02 0.140
## 10 snp_00004 p_01*p_01 0.688
## # ℹ 20 more rows
## 
## $pves
## # A tibble: 30 × 3
##    id        trait          PVE
##    <chr>     <chr>        <dbl>
##  1 snp_00001 p_01*p_01  0.0615 
##  2 snp_00001 p_02*p_01  0.0663 
##  3 snp_00001 p_02*p_02 -0.00451
##  4 snp_00002 p_01*p_01 -0.0215 
##  5 snp_00002 p_02*p_01 -0.0239 
##  6 snp_00002 p_02*p_02 -0.0287 
##  7 snp_00003 p_01*p_01  0.0579 
##  8 snp_00003 p_02*p_01  0.0493 
##  9 snp_00003 p_02*p_02 -0.0400 
## 10 snp_00004 p_01*p_01 -0.0146 
## # ℹ 20 more rows
## 
## $duration
##       process duration_ms
## 1         cov    0.000000
## 2 projections    1.333333
## 3   vectorize    0.000000
## 4           q    1.000000
## 5           S    0.000000
…
